{
  "project_info": {
    "project_number": "465418884699",
    "firebase_url": "https://newdemo-316a3-default-rtdb.firebaseio.com",
    "project_id": "newdemo-316a3",
    "storage_bucket": "newdemo-316a3.appspot.com"
  },
  "client": [
    {
      "client_info": {
        "mobilesdk_app_id": "1:465418884699:android:756adfa64fb8dd7fdc917e",
        "android_client_info": {
          "package_name": "com.bigbuttons.keyboard.bigkeysfortyping"
        }
      },
      "oauth_client": [
        {
          "client_id": "465418884699-qbuipcnoiafabcgt1g6sronpgtj2p8r2.apps.googleusercontent.com",
          "client_type": 3
        }
      ],
      "api_key": [
        {
          "current_key": "AIzaSyCiebzPA3fF1RuXYwZObzImkQsKJqfth6Q"
        }
      ],
      "services": {
        "appinvite_service": {
          "other_platform_oauth_client": [
            {
              "client_id": "465418884699-qbuipcnoiafabcgt1g6sronpgtj2p8r2.apps.googleusercontent.com",
              "client_type": 3
            }
          ]
        }
      }
    },
    {
      "client_info": {
        "mobilesdk_app_id": "1:465418884699:android:95094a1fef4ff050dc917e",
        "android_client_info": {
          "package_name": "com.logomaker.esportslogomaker"
        }
      },
      "oauth_client": [
        {
          "client_id": "465418884699-qbuipcnoiafabcgt1g6sronpgtj2p8r2.apps.googleusercontent.com",
          "client_type": 3
        }
      ],
      "api_key": [
        {
          "current_key": "AIzaSyCiebzPA3fF1RuXYwZObzImkQsKJqfth6Q"
        }
      ],
      "services": {
        "appinvite_service": {
          "other_platform_oauth_client": [
            {
              "client_id": "465418884699-qbuipcnoiafabcgt1g6sronpgtj2p8r2.apps.googleusercontent.com",
              "client_type": 3
            }
          ]
        }
      }
    },
    {
      "client_info": {
        "mobilesdk_app_id": "1:465418884699:android:1549593f7468a874dc917e",
        "android_client_info": {
          "package_name": "com.quranreading.sahihbukhari"
        }
      },
      "oauth_client": [
        {
          "client_id": "465418884699-qbuipcnoiafabcgt1g6sronpgtj2p8r2.apps.googleusercontent.com",
          "client_type": 3
        }
      ],
      "api_key": [
        {
          "current_key": "AIzaSyCiebzPA3fF1RuXYwZObzImkQsKJqfth6Q"
        }
      ],
      "services": {
        "appinvite_service": {
          "other_platform_oauth_client": [
            {
              "client_id": "465418884699-qbuipcnoiafabcgt1g6sronpgtj2p8r2.apps.googleusercontent.com",
              "client_type": 3
            }
          ]
        }
      }
    },
    {
      "client_info": {
        "mobilesdk_app_id": "1:465418884699:android:cf14d56736087983dc917e",
        "android_client_info": {
          "package_name": "com.remote.configuration"
        }
      },
      "oauth_client": [
        {
          "client_id": "465418884699-qbuipcnoiafabcgt1g6sronpgtj2p8r2.apps.googleusercontent.com",
          "client_type": 3
        }
      ],
      "api_key": [
        {
          "current_key": "AIzaSyCiebzPA3fF1RuXYwZObzImkQsKJqfth6Q"
        }
      ],
      "services": {
        "appinvite_service": {
          "other_platform_oauth_client": [
            {
              "client_id": "465418884699-qbuipcnoiafabcgt1g6sronpgtj2p8r2.apps.googleusercontent.com",
              "client_type": 3
            }
          ]
        }
      }
    },
    {
      "client_info": {
        "mobilesdk_app_id": "1:465418884699:android:d157047411f33bb8dc917e",
        "android_client_info": {
          "package_name": "com.videocompressor.video.converter.mp4"
        }
      },
      "oauth_client": [
        {
          "client_id": "465418884699-qbuipcnoiafabcgt1g6sronpgtj2p8r2.apps.googleusercontent.com",
          "client_type": 3
        }
      ],
      "api_key": [
        {
          "current_key": "AIzaSyCiebzPA3fF1RuXYwZObzImkQsKJqfth6Q"
        }
      ],
      "services": {
        "appinvite_service": {
          "other_platform_oauth_client": [
            {
              "client_id": "465418884699-qbuipcnoiafabcgt1g6sronpgtj2p8r2.apps.googleusercontent.com",
              "client_type": 3
            }
          ]
        }
      }
    }
  ],
  "configuration_version": "1"
}